Makes Artwork From Voronoi Tesselations • voronoise
…
library(voronoise)
#> Loading required package: ggplot2
#> Loading required package: ggforce

set.seed(1)

dat <- tibble::tibble(
  x = runif(n = 50, min = .1, max = .9),
  y = runif(n = 50, min = .1, max = .9),
  shade = sample(colours(), size = 50, replace = TRUE)
)

dat
#> # A tibble: 50 x 3
#>        x     y shade       
#>    <dbl> <dbl> <chr>       
#>  1 0.312 0.482 tan         
#>  2 0.398 0.789 grey43      
#>  3 0.558 0.450 plum4       
#>  4 0.827 0.296 rosybrown   
#>  5 0.261 0.157 grey26      
#>  6 0.819 0.180 springgreen4
#>  7 0.856 0.353 gold3       
#>  8 0.629 0.515 grey68      
#>  9 0.603 0.630 navajowhite2
#> 10 0.149 0.425 tomato      
#> # … with 40 more rows
…
